{
  "jira.project.versions.version-detail.release.clicked": [
    "versionId",
    "overdue",
    "daysRemaining"
  ],
  "jira.project.versions.version-detail.release.dialog.clicked": [
    "versionId",
    {
      "released": [
        "existing-build",
        "new-build",
        "no-build"
      ]
    }
  ]
}
